<?xml version="1.0" encoding="utf-8"?>
<!-- Generator: Adobe Illustrator 26.2.0, SVG Export Plug-In . SVG Version: 6.00 Build 0)  -->
<svg version="1.1" id="Layer_1" xmlns="http://www.w3.org/2000/svg" xmlns:xlink="http://www.w3.org/1999/xlink" x="0px" y="0px"
	 viewBox="0 0 2122.75 1440" style="enable-background:new 0 0 2122.75 1440;" xml:space="preserve">
<style type="text/css">
	.st0{fill:#FFFFFF;}
	.st1{fill:#4AC8EF;}
	.st2{fill:#4A99D3;}
	.st3{fill:#4067B1;}
</style>
<g id="Layer_1_00000169526352896589446270000014467112608615352487_">
	<g>
		<g>
			<g>
				<path class="st0" d="M990.12,789.42c-17.64,0-28.94-10.2-28.94-34.18v-168.7c2.48-0.83,5.51-1.38,8.27-1.38s3.86,1.1,3.86,3.31
					v166.77c0,16.54,6.62,23.15,18.74,23.15c5.24,0,11.85-1.1,16.26-3.03c1.38,1.65,1.93,4.13,1.93,5.79
					C1010.24,784.18,1001.15,789.42,990.12,789.42z"/>
				<path class="st0" d="M1038.91,592.88c0-5.24,3.58-8.54,8.27-8.54s8.82,3.58,8.82,9.37c0,5.24-3.58,8.55-8.27,8.55
					S1038.91,598.67,1038.91,592.88z M1053.52,764.89c0,10.47,3.58,14.06,10.2,14.06h4.96c0.55,1.38,0.83,3.03,0.83,4.69
					c0,2.76-4.41,5.79-10.75,5.79c-9.65,0-17.37-6.89-17.37-24.53V640.57c2.48-0.83,5.51-1.38,8.27-1.38s3.86,1.1,3.86,3.31
					L1053.52,764.89L1053.52,764.89z"/>
				<path class="st0" d="M1164.05,787.49h-8.82l-58.99-144.72c3.31-2.76,6.62-4.13,9.1-4.13c2.21,0,3.03,1.1,4.13,3.86l53.48,130.11
					c21.78-34.46,43-82.14,56.78-132.31h6.34c4.13,0,5.79,1.38,4.69,4.96c-14.33,50.44-34.46,97.03-60.37,138.38
					C1168.46,786.66,1167.08,787.49,1164.05,787.49z"/>
				<path class="st0" d="M1369.96,770.68c1.38,1.65,1.93,4.13,1.93,5.79c0,4.96-16.81,14.33-40.8,14.33
					c-40.24,0-71.39-31.42-71.39-78.28c0-46.03,33.08-75.53,68.91-75.53c33.63,0,57.33,22.6,57.33,54.85
					c0,5.79-1.1,12.68-3.03,18.19c-2.76,7.72-6.06,9.1-13.51,9.1h-97.3c2.76,38.32,30.32,60.64,60.09,60.64
					C1344.88,779.77,1359.49,776.74,1369.96,770.68z M1271.83,708.1h98.96c1.93-4.13,3.03-10.2,3.03-16.26
					c0-26.19-18.74-43.83-45.76-43.83C1300.22,648.01,1273.76,671.44,1271.83,708.1z"/>
				<path class="st0" d="M1437.49,787.49c-4.13,0-5.51-1.1-5.51-4.69V594.54h54.03c43.83,0,74.7,25.36,74.7,69.46
					c0,46.03-33.63,69.46-73.32,69.46c-15.16,0-30.05-2.21-43.28-6.62v60.64L1437.49,787.49L1437.49,787.49z M1444.11,716.92
					c12.4,3.86,27.56,5.51,43.28,5.51c35.83,0,61.19-21.22,61.19-58.44c0-38.87-26.74-58.44-62.3-58.44h-42.17L1444.11,716.92
					L1444.11,716.92z"/>
				<path class="st0" d="M1733.54,713.89c0,47.96-31.98,76.91-70.02,76.91s-70.01-28.94-70.01-76.91s31.98-76.91,70.01-76.91
					C1701.56,636.99,1733.54,665.93,1733.54,713.89z M1721.41,715.55c0-44.93-28.39-67.53-59.54-67.53
					c-28.67,0-56.23,21.5-56.23,64.23c0,44.93,28.39,67.54,59.54,67.54C1693.84,779.77,1721.41,758.27,1721.41,715.55z"/>
				<path class="st0" d="M1858.68,753.03c0-14.33-9.92-24.53-38.04-31.42c-34.46-8.27-50.44-22.33-50.44-45.48
					c0-23.16,19.3-39.14,47.69-39.14c22.88,0,40.8,9.65,49.34,23.98c1.93,3.03,0.83,4.96-1.65,6.62c-2.48,1.65-4.96,2.21-7.72,2.76
					c-7.17-14.61-22.6-22.33-40.25-22.33c-19.57,0-35.28,11.3-35.28,29.22c0,16.26,11.3,25.36,42.45,33.35
					c32.53,8.27,46.03,20.67,46.03,41.62c0,23.98-18.47,38.59-52.37,38.59c-23.43,0-43.55-10.2-43.55-14.88
					c0-1.93,0.55-4.41,1.93-6.06c11.03,5.79,24.53,9.92,41.07,9.92C1844.35,779.77,1858.68,770.68,1858.68,753.03z"/>
				<path class="st0" d="M2015.52,770.68c1.38,1.65,1.93,4.13,1.93,5.79c0,4.96-16.81,14.33-40.8,14.33
					c-40.25,0-71.39-31.42-71.39-78.28c0-46.03,33.08-75.53,68.91-75.53c33.63,0,57.34,22.6,57.34,54.85
					c0,5.79-1.1,12.68-3.03,18.19c-2.76,7.72-6.06,9.1-13.51,9.1h-97.3c2.76,38.32,30.32,60.64,60.09,60.64
					C1990.44,779.77,2005.05,776.74,2015.52,770.68z M1917.39,708.1h98.96c1.93-4.13,3.03-10.2,3.03-16.26
					c0-26.19-18.74-43.83-45.76-43.83C1945.78,648.01,1919.32,671.44,1917.39,708.1z"/>
			</g>
		</g>
	</g>
	<g>
		<g>
			<path class="st1" d="M96.1,377.89l31.49,10.66l135.65,45.91l146.22-121.41c-10.37-12.16-23.99-21.54-39.73-26.76l-89.75-29.82
				c-7.33-2.43-14.84-3.84-22.34-4.26c-1.88-0.11-3.75-0.15-5.63-0.13c-3.75,0.04-7.48,0.31-11.17,0.83
				c-9.24,1.3-18.24,4.09-26.64,8.3c-3.36,1.68-6.62,3.59-9.77,5.73c-3.14,2.13-6.17,4.49-9.04,7.06l-74.46,66.56
				C109.41,350.84,100.97,363.75,96.1,377.89z"/>
		</g>
		<g>
			<g>
				<path class="st1" d="M340.15,875.94l-0.06,0.05l0,0l0,0l0,0l0,0l-0.06,0.05l183.27,68.97l0,0l297.08-247.2
					c-10.06-11.73-23.21-20.81-38.37-25.97l-15.72-5.35l-72.36-24.63l0,0c-28.61-9.74-60.22-4.09-83.7,14.94c0,0-0.01,0-0.01,0.01
					l-33.8,27.42l-83.19,67.49L340.02,876.04"/>
			</g>
			<g>
				<path class="st2" d="M340.02,876.04l0.06-0.05l0,0l0.06-0.05L492.8,752.08l0.44-0.35l-6.9-40.1l0,0l-10.99-68.77l-45.7-286.05
					c-2.64-16.48-9.77-31.54-20.21-43.77L263.23,434.45l43.84,251.72L340.02,876.04z"/>
			</g>
			<g>
				<path class="st3" d="M523.3,945.02l-183.27-68.97l-76.79-441.59L96.1,377.89c-1.49,4.31-2.6,8.75-3.42,13.25
					c-1.86,10.3-1.95,20.98-0.04,31.59l12.97,71.92l57.2,317.09l24.93,143.44c1.33,7.65,3.66,14.98,6.86,21.84
					c1.6,3.43,3.42,6.73,5.44,9.91c2.02,3.17,4.25,6.2,6.66,9.08s5.01,5.6,7.78,8.14c8.31,7.64,18.15,13.69,29.1,17.66l265.16,96.11
					c14.7,5.33,30.27,6.46,45.14,3.72L523.3,945.02z"/>
			</g>
			<g>
				<path class="st2" d="M855.79,829.54l-15.5-89.48c-2.76-15.91-9.77-30.42-19.91-42.24L523.3,945.02l30.6,176.62l0,0
					c14.35-2.64,28.05-8.9,39.66-18.56L826.44,909.3c4.38-3.64,8.33-7.67,11.82-12.01c1.16-1.45,2.28-2.93,3.34-4.44
					c2.13-3.03,4.04-6.18,5.75-9.43c1.71-3.26,3.2-6.62,4.46-10.06c1.9-5.16,3.3-10.51,4.17-15.97
					C857.43,848.29,857.41,838.89,855.79,829.54z"/>
			</g>
		</g>
	</g>
</g>
<g id="Layer_2_00000009562193918962080790000012990546265607249846_">
</g>
<g id="Layer_3">
</g>
<g id="Layer_4">
</g>
</svg>
