<?xml version="1.0" encoding="utf-8"?>
<!-- Generator: Adobe Illustrator 26.2.0, SVG Export Plug-In . SVG Version: 6.00 Build 0)  -->
<svg version="1.1" id="Layer_1" xmlns="http://www.w3.org/2000/svg" xmlns:xlink="http://www.w3.org/1999/xlink" x="0px" y="0px"
	 viewBox="0 0 1440 1440" style="enable-background:new 0 0 1440 1440;" xml:space="preserve">
<style type="text/css">
	.st0{fill:#231F20;}
	.st1{fill:#00D6FF;}
	.st2{fill:#00A1FF;}
	.st3{fill:#0063FD;}
</style>
<g>
	<path class="st0" d="M213.78,1282.86c-17.64,0-28.94-10.2-28.94-34.18v-168.7c2.48-0.83,5.51-1.38,8.27-1.38s3.86,1.1,3.86,3.31
		v166.77c0,16.54,6.62,23.15,18.74,23.15c5.24,0,11.85-1.1,16.26-3.03c1.38,1.65,1.93,4.13,1.93,5.79
		C233.9,1277.62,224.8,1282.86,213.78,1282.86z"/>
	<path class="st0" d="M262.57,1086.32c0-5.24,3.58-8.54,8.27-8.54s8.82,3.58,8.82,9.37c0,5.24-3.58,8.55-8.27,8.55
		S262.57,1092.11,262.57,1086.32z M277.18,1258.33c0,10.47,3.58,14.06,10.2,14.06h4.96c0.55,1.38,0.83,3.03,0.83,4.69
		c0,2.76-4.41,5.79-10.75,5.79c-9.65,0-17.37-6.89-17.37-24.53v-124.32c2.48-0.83,5.51-1.38,8.27-1.38s3.86,1.1,3.86,3.31
		L277.18,1258.33L277.18,1258.33z"/>
	<path class="st0" d="M387.71,1280.93h-8.82l-58.99-144.72c3.31-2.76,6.62-4.13,9.1-4.13c2.21,0,3.03,1.1,4.13,3.86l53.48,130.11
		c21.78-34.46,43-82.14,56.78-132.31h6.34c4.13,0,5.79,1.38,4.69,4.96c-14.33,50.44-34.46,97.03-60.37,138.38
		C392.12,1280.1,390.74,1280.93,387.71,1280.93z"/>
	<path class="st0" d="M593.61,1264.12c1.38,1.65,1.93,4.13,1.93,5.79c0,4.96-16.81,14.33-40.8,14.33
		c-40.24,0-71.39-31.42-71.39-78.28c0-46.03,33.08-75.53,68.91-75.53c33.63,0,57.33,22.6,57.33,54.85c0,5.79-1.1,12.68-3.03,18.19
		c-2.76,7.72-6.06,9.1-13.51,9.1h-97.3c2.76,38.32,30.32,60.64,60.09,60.64C568.54,1273.21,583.15,1270.18,593.61,1264.12z
		 M495.49,1201.54h98.96c1.93-4.13,3.03-10.2,3.03-16.26c0-26.19-18.74-43.83-45.76-43.83
		C523.88,1141.45,497.42,1164.88,495.49,1201.54z"/>
	<path class="st0" d="M661.15,1280.93c-4.13,0-5.51-1.1-5.51-4.69v-188.27h54.03c43.83,0,74.7,25.36,74.7,69.46
		c0,46.03-33.63,69.46-73.32,69.46c-15.16,0-30.05-2.21-43.28-6.62v60.64h-6.62V1280.93z M667.77,1210.37
		c12.4,3.86,27.56,5.51,43.28,5.51c35.83,0,61.19-21.22,61.19-58.44c0-38.87-26.74-58.44-62.3-58.44h-42.17V1210.37z"/>
	<path class="st0" d="M957.2,1207.33c0,47.96-31.98,76.91-70.02,76.91c-38.04,0-70.01-28.94-70.01-76.91s31.98-76.91,70.01-76.91
		C925.22,1130.43,957.2,1159.37,957.2,1207.33z M945.07,1208.99c0-44.93-28.39-67.53-59.54-67.53c-28.67,0-56.23,21.5-56.23,64.23
		c0,44.93,28.39,67.54,59.54,67.54C917.49,1273.21,945.07,1251.71,945.07,1208.99z"/>
	<path class="st0" d="M1082.33,1246.48c0-14.33-9.92-24.53-38.04-31.42c-34.46-8.27-50.44-22.33-50.44-45.48
		c0-23.16,19.3-39.14,47.69-39.14c22.88,0,40.8,9.65,49.34,23.98c1.93,3.03,0.83,4.96-1.65,6.62c-2.48,1.65-4.96,2.21-7.72,2.76
		c-7.17-14.61-22.6-22.33-40.25-22.33c-19.57,0-35.28,11.3-35.28,29.22c0,16.26,11.3,25.36,42.45,33.35
		c32.53,8.27,46.03,20.67,46.03,41.62c0,23.98-18.47,38.59-52.37,38.59c-23.43,0-43.55-10.2-43.55-14.88c0-1.93,0.55-4.41,1.93-6.06
		c11.03,5.79,24.53,9.92,41.07,9.92C1068,1273.21,1082.33,1264.12,1082.33,1246.48z"/>
	<path class="st0" d="M1239.18,1264.12c1.38,1.65,1.93,4.13,1.93,5.79c0,4.96-16.81,14.33-40.8,14.33
		c-40.25,0-71.39-31.42-71.39-78.28c0-46.03,33.08-75.53,68.91-75.53c33.63,0,57.34,22.6,57.34,54.85c0,5.79-1.1,12.68-3.03,18.19
		c-2.76,7.72-6.06,9.1-13.51,9.1h-97.3c2.76,38.32,30.32,60.64,60.09,60.64C1214.09,1273.21,1228.71,1270.18,1239.18,1264.12z
		 M1141.04,1201.54H1240c1.93-4.13,3.03-10.2,3.03-16.26c0-26.19-18.74-43.83-45.76-43.83
		C1169.44,1141.45,1142.98,1164.88,1141.04,1201.54z"/>
</g>
<g>
	<g>
		<path class="st1" d="M341.95,235.38l31.49,10.66l135.65,45.91l146.22-121.41c-10.37-12.16-23.99-21.54-39.73-26.76l-89.75-29.82
			c-7.33-2.43-14.84-3.84-22.34-4.26c-1.88-0.11-3.75-0.15-5.63-0.13c-3.75,0.04-7.48,0.31-11.17,0.83
			c-9.24,1.3-18.24,4.09-26.64,8.3c-3.36,1.68-6.62,3.59-9.77,5.73s-6.17,4.49-9.04,7.06l-74.46,66.56
			C355.27,208.32,346.83,221.24,341.95,235.38z"/>
	</g>
	<g>
		<g>
			<path class="st1" d="M586,733.43l-0.06,0.05l0,0l0,0l0,0l0,0l-0.06,0.05l183.27,68.97l0,0l297.08-247.2
				c-10.06-11.73-23.21-20.81-38.37-25.97l-15.72-5.35l-72.36-24.63l0,0c-28.61-9.74-60.22-4.09-83.7,14.94c0,0-0.01,0-0.01,0.01
				l-33.8,27.42l-83.19,67.49l-153.2,124.32"/>
		</g>
		<g>
			<path class="st2" d="M585.88,733.53l0.06-0.05l0,0l0.06-0.05l152.66-123.86l0.44-0.35l-6.9-40.1l0,0l-10.99-68.77l-45.7-286.05
				c-2.64-16.48-9.77-31.54-20.21-43.77L509.09,291.94l43.84,251.72L585.88,733.53z"/>
		</g>
		<g>
			<path class="st3" d="M769.15,802.5l-183.27-68.97l-76.79-441.59l-167.14-56.56c-1.49,4.31-2.6,8.75-3.42,13.25
				c-1.86,10.3-1.95,20.98-0.04,31.59l12.97,71.92l57.2,317.09l24.93,143.44c1.33,7.65,3.66,14.98,6.86,21.84
				c1.6,3.43,3.42,6.73,5.44,9.91c2.02,3.17,4.25,6.2,6.66,9.08s5.01,5.6,7.78,8.14c8.31,7.64,18.15,13.69,29.1,17.66l265.16,96.11
				c14.7,5.33,30.27,6.46,45.14,3.72L769.15,802.5z"/>
		</g>
		<g>
			<path class="st2" d="M1101.65,687.02l-15.5-89.48c-2.76-15.91-9.77-30.42-19.91-42.24L769.15,802.5l30.6,176.62l0,0
				c14.35-2.64,28.05-8.9,39.66-18.56l232.89-193.78c4.38-3.64,8.33-7.67,11.82-12.01c1.16-1.45,2.28-2.93,3.34-4.44
				c2.13-3.03,4.04-6.18,5.75-9.43c1.71-3.26,3.2-6.62,4.46-10.06c1.9-5.16,3.3-10.51,4.17-15.97
				C1103.29,705.78,1103.27,696.38,1101.65,687.02z"/>
		</g>
	</g>
</g>
<g id="Layer_2_00000083074708867683767770000016263048687692480131_">
</g>
<g id="Layer_3">
</g>
</svg>
