<?xml version="1.0" encoding="utf-8"?>
<!-- Generator: Adobe Illustrator 26.2.0, SVG Export Plug-In . SVG Version: 6.00 Build 0)  -->
<svg version="1.1" id="Layer_1" xmlns="http://www.w3.org/2000/svg" xmlns:xlink="http://www.w3.org/1999/xlink" x="0px" y="0px"
	 viewBox="0 0 1440 1440" style="enable-background:new 0 0 1440 1440;" xml:space="preserve">
<style type="text/css">
	.st0{fill:#FFFFFF;}
</style>
<g>
	<path class="st0" d="M213.77,1282.86c-17.64,0-28.94-10.2-28.94-34.18v-168.7c2.48-0.83,5.51-1.38,8.27-1.38s3.86,1.1,3.86,3.31
		v166.77c0,16.54,6.62,23.15,18.74,23.15c5.24,0,11.85-1.1,16.26-3.03c1.38,1.65,1.93,4.13,1.93,5.79
		C233.89,1277.62,224.79,1282.86,213.77,1282.86z"/>
	<path class="st0" d="M262.55,1086.32c0-5.24,3.58-8.54,8.27-8.54s8.82,3.58,8.82,9.37c0,5.24-3.58,8.55-8.27,8.55
		S262.55,1092.11,262.55,1086.32z M277.16,1258.33c0,10.47,3.58,14.06,10.2,14.06h4.96c0.55,1.38,0.83,3.03,0.83,4.69
		c0,2.76-4.41,5.79-10.75,5.79c-9.65,0-17.37-6.89-17.37-24.53v-124.32c2.48-0.83,5.51-1.38,8.27-1.38c2.76,0,3.86,1.1,3.86,3.31
		V1258.33L277.16,1258.33z"/>
	<path class="st0" d="M387.7,1280.93h-8.82l-58.99-144.72c3.31-2.76,6.62-4.13,9.1-4.13c2.21,0,3.03,1.1,4.13,3.86l53.48,130.11
		c21.78-34.46,43-82.14,56.78-132.31h6.34c4.13,0,5.79,1.38,4.69,4.96c-14.33,50.44-34.46,97.03-60.37,138.38
		C392.11,1280.1,390.73,1280.93,387.7,1280.93z"/>
	<path class="st0" d="M593.61,1264.12c1.38,1.65,1.93,4.13,1.93,5.79c0,4.96-16.81,14.33-40.8,14.33
		c-40.24,0-71.39-31.42-71.39-78.28c0-46.03,33.08-75.53,68.91-75.53c33.63,0,57.33,22.6,57.33,54.85c0,5.79-1.1,12.68-3.03,18.19
		c-2.76,7.72-6.06,9.1-13.51,9.1h-97.3c2.76,38.32,30.32,60.64,60.09,60.64C568.53,1273.21,583.15,1270.18,593.61,1264.12z
		 M495.48,1201.54h98.96c1.93-4.13,3.03-10.2,3.03-16.26c0-26.19-18.74-43.83-45.76-43.83
		C523.88,1141.45,497.41,1164.88,495.48,1201.54z"/>
	<path class="st0" d="M661.15,1280.93c-4.13,0-5.51-1.1-5.51-4.69v-188.27h54.03c43.83,0,74.7,25.36,74.7,69.46
		c0,46.03-33.63,69.46-73.32,69.46c-15.16,0-30.05-2.21-43.28-6.62v60.64h-6.62V1280.93z M667.77,1210.37
		c12.4,3.86,27.56,5.51,43.28,5.51c35.83,0,61.19-21.22,61.19-58.44c0-38.87-26.74-58.44-62.3-58.44h-42.17L667.77,1210.37
		L667.77,1210.37z"/>
	<path class="st0" d="M957.2,1207.33c0,47.96-31.98,76.91-70.02,76.91c-38.04,0-70.01-28.94-70.01-76.91s31.98-76.91,70.01-76.91
		C925.21,1130.43,957.2,1159.37,957.2,1207.33z M945.07,1208.99c0-44.93-28.39-67.53-59.54-67.53c-28.67,0-56.23,21.5-56.23,64.23
		c0,44.93,28.39,67.54,59.54,67.54C917.49,1273.21,945.07,1251.71,945.07,1208.99z"/>
	<path class="st0" d="M1082.33,1246.48c0-14.33-9.92-24.53-38.04-31.42c-34.46-8.27-50.44-22.33-50.44-45.48
		c0-23.16,19.3-39.14,47.69-39.14c22.88,0,40.8,9.65,49.34,23.98c1.93,3.03,0.83,4.96-1.65,6.62c-2.48,1.65-4.96,2.21-7.72,2.76
		c-7.17-14.61-22.6-22.33-40.25-22.33c-19.57,0-35.28,11.3-35.28,29.22c0,16.26,11.3,25.36,42.45,33.35
		c32.53,8.27,46.03,20.67,46.03,41.62c0,23.98-18.47,38.59-52.37,38.59c-23.43,0-43.55-10.2-43.55-14.88c0-1.93,0.55-4.41,1.93-6.06
		c11.03,5.79,24.53,9.92,41.07,9.92C1067.99,1273.21,1082.33,1264.12,1082.33,1246.48z"/>
	<path class="st0" d="M1239.18,1264.12c1.38,1.65,1.93,4.13,1.93,5.79c0,4.96-16.81,14.33-40.8,14.33
		c-40.25,0-71.39-31.42-71.39-78.28c0-46.03,33.08-75.53,68.91-75.53c33.63,0,57.34,22.6,57.34,54.85c0,5.79-1.1,12.68-3.03,18.19
		c-2.76,7.72-6.06,9.1-13.51,9.1h-97.3c2.76,38.32,30.32,60.64,60.09,60.64C1214.08,1273.21,1228.69,1270.18,1239.18,1264.12z
		 M1141.05,1201.54h98.96c1.93-4.13,3.03-10.2,3.03-16.26c0-26.19-18.74-43.83-45.76-43.83
		C1169.43,1141.45,1142.97,1164.88,1141.05,1201.54z"/>
</g>
<g>
	<path class="st0" d="M506.64,276.18l130.6-108.44c-7.47-6.33-16.11-11.2-25.47-14.31l-89.7-29.81c-6.2-2.06-12.65-3.29-19.16-3.66
		c-1.61-0.09-3.23-0.13-4.82-0.11c-3.2,0.03-6.43,0.27-9.59,0.71c-7.98,1.12-15.67,3.52-22.86,7.12c-2.89,1.45-5.71,3.1-8.38,4.91
		c-2.71,1.84-5.32,3.87-7.76,6.06l-74.42,66.52c-6.67,5.96-12.24,13.06-16.46,20.91l68.37,23.15L506.64,276.18z"/>
	<path class="st0" d="M565.03,539.44l29.38,169.27l131.43-106.63l-5.68-33.03c-0.01-0.05-0.02-0.1-0.02-0.14l-56.66-354.64
		c-1.59-9.95-5.12-19.45-10.34-27.98l-130.7,108.53L565.03,539.44z"/>
	<path class="st0" d="M1073.92,597.47c-1.64-9.45-5.06-18.48-10.04-26.61L829.37,766l-47.01,39.12l7.02,40.51l20.08,115.89
		c8.02-2.92,15.51-7.2,22.08-12.67l232.77-193.68c3.7-3.08,7.11-6.54,10.12-10.28c0.99-1.22,1.95-2.5,2.86-3.8
		c1.81-2.57,3.46-5.28,4.92-8.07c1.45-2.77,2.74-5.67,3.82-8.6c1.63-4.43,2.83-9.03,3.57-13.67c1.26-7.91,1.21-15.93-0.16-23.83
		L1073.92,597.47z"/>
	<path class="st0" d="M766.77,786.31l281.15-233.94c-7.12-5.96-15.31-10.58-24.16-13.6l-88.03-29.97
		c-24.77-8.43-51.7-3.63-72.02,12.86c0,0-0.01,0-0.01,0.01l-116.91,94.86l0,0l-0.44,0.35L610.17,727.37L766.77,786.31z"/>
	<path class="st0" d="M758.28,809.21l-143.79-54.12l-32.65-12.29l0,0l-0.2-0.07c-0.18-0.07-0.35-0.16-0.53-0.24
		c-0.29-0.13-0.58-0.24-0.87-0.39c-0.2-0.11-0.39-0.24-0.59-0.35c-0.27-0.16-0.53-0.31-0.79-0.49c-0.26-0.18-0.49-0.39-0.73-0.59
		c-0.17-0.15-0.36-0.27-0.53-0.43c-0.4-0.37-0.77-0.77-1.11-1.19c-0.01-0.02-0.03-0.03-0.04-0.04c-0.28-0.35-0.54-0.71-0.78-1.08
		c-0.06-0.09-0.11-0.17-0.16-0.26c-0.22-0.35-0.41-0.72-0.59-1.08c-0.03-0.07-0.07-0.13-0.1-0.2c-0.2-0.44-0.38-0.9-0.52-1.36
		c-0.02-0.06-0.03-0.12-0.05-0.18c-0.13-0.43-0.23-0.86-0.32-1.3c-0.01-0.05-0.03-0.09-0.03-0.14l-75.51-434.22l-42.84-14.5
		l-104.88-35.5c-1.58,8.99-1.57,18.02,0.03,26.87l70.14,388.82l24.93,143.44c1.13,6.49,3.11,12.8,5.89,18.75
		c1.37,2.92,2.94,5.78,4.67,8.5c1.73,2.71,3.65,5.33,5.72,7.8c2.06,2.46,4.31,4.82,6.68,6.99c7.28,6.69,15.69,11.79,24.99,15.16
		l265.03,96.06c8.56,3.1,17.61,4.58,26.69,4.41L767.39,861.8L758.28,809.21z"/>
	<path class="st0" d="M746.35,616.89l0.44-0.35l0,0l116.91-94.85c0,0,0.01,0,0.01-0.01c20.32-16.48,47.25-21.29,72.02-12.86
		l88.03,29.97c8.84,3.01,17.03,7.63,24.16,13.6L766.77,786.31l-156.61-58.94L746.35,616.89z M663.47,214.27l56.66,354.64
		c0.01,0.05,0.02,0.1,0.02,0.14l5.68,33.03L594.41,708.7l-29.38-169.27l-42.6-244.62l130.7-108.53
		C658.36,194.82,661.88,204.32,663.47,214.27z M375.09,205.18l74.42-66.52c2.44-2.18,5.05-4.22,7.76-6.06
		c2.67-1.81,5.49-3.46,8.38-4.91c7.19-3.6,14.88-6,22.86-7.12c3.16-0.44,6.39-0.68,9.59-0.71c1.59-0.01,3.22,0.02,4.82,0.11
		c6.51,0.36,12.96,1.59,19.16,3.66l89.7,29.81c9.36,3.11,18,7.98,25.47,14.31l-130.6,108.44l-79.66-26.96l-68.37-23.14
		C362.85,218.24,368.42,211.14,375.09,205.18z M758.75,961.57l-265.03-96.06c-9.3-3.37-17.71-8.47-24.99-15.16
		c-2.37-2.18-4.61-4.53-6.68-6.99c-2.07-2.47-3.99-5.09-5.72-7.8c-1.73-2.72-3.31-5.58-4.67-8.5c-2.78-5.95-4.76-12.26-5.89-18.75
		l-24.93-143.44L350.7,276.05c-1.6-8.84-1.6-17.88-0.03-26.87l104.88,35.5l42.84,14.5L573.9,733.4c0.01,0.05,0.02,0.09,0.03,0.14
		c0.08,0.44,0.19,0.87,0.32,1.3c0.02,0.06,0.03,0.12,0.05,0.18c0.15,0.46,0.32,0.91,0.52,1.36c0.03,0.07,0.07,0.13,0.1,0.2
		c0.18,0.37,0.37,0.73,0.59,1.08c0.05,0.09,0.1,0.17,0.16,0.26c0.24,0.37,0.49,0.73,0.78,1.08c0.01,0.02,0.03,0.03,0.04,0.04
		c0.34,0.42,0.71,0.82,1.11,1.19c0.17,0.16,0.35,0.28,0.53,0.43c0.24,0.2,0.47,0.41,0.73,0.59c0.25,0.18,0.52,0.33,0.79,0.49
		c0.2,0.12,0.38,0.25,0.59,0.35c0.28,0.15,0.58,0.27,0.87,0.39c0.18,0.08,0.35,0.17,0.53,0.24l0.2,0.07l0,0l32.65,12.29
		l143.79,54.12l9.11,52.59l18.05,104.18C776.35,966.15,767.31,964.67,758.75,961.57z M1089.58,710.73
		c-0.74,4.64-1.94,9.24-3.57,13.67c-1.08,2.94-2.36,5.83-3.82,8.6c-1.46,2.79-3.11,5.5-4.92,8.07c-0.91,1.3-1.87,2.58-2.86,3.8
		c-3.01,3.74-6.41,7.2-10.12,10.28L831.53,948.84c-6.57,5.47-14.06,9.75-22.08,12.67l-20.08-115.89l-7.02-40.51L829.37,766
		l234.51-195.13c4.98,8.13,8.4,17.16,10.04,26.61l15.49,89.43C1090.78,694.81,1090.84,702.83,1089.58,710.73z"/>
</g>
<g id="Layer_2_00000023999056638753740700000000273019560520519566_">
</g>
<g id="Layer_3">
</g>
<g id="Layer_4">
</g>
<g id="Layer_5">
</g>
</svg>
